5386 2300 238
4954 9210 262
1984 1393 180
7290 6850 257
6240 5559 262
3041 4649 238
5256 7653 262
1989 7184 262
885 1570 182
7609 1992 262
7913 4710 262
1965 7238 262
9062 9523 260
7756 4447 262
7113 2723 262
9049 7290 252
8472 3259 262
9650 8477 260
2346 2963 217
5350 2854 238
3176 8573 262
3934 5766 236
5818 7854 262
4104 7260 262
8815 8557 216
4235 4369 202
6901 9847 260
6105 5079 236
880 1978 182
7897 4149 262
9196 9319 260
7149 5232 262
9198 8965 198
1196 1802 180
4671 5246 210
7782 1711 262
475 8869 262
8301 5263 262
8015 9983 260
8882 6500 257
5974 3740 236
7169 1678 262
6691 2328 262
755 9094 262
8737 7496 252
2740 1474 209
4037 6215 262
1537 4958 238
8154 609 262
2995 7698 262
5136 4704 210
525 1149 179
2130 4886 238
6076 4773 236
8101 5462 262
635 9470 262
3699 8803 262
4591 4117 215
8985 9328 260
4780 7705 262
7972 1155 262
9229 6772 257
4243 6587 262
7725 9266 260
1229 7699 262
2628 8893 262
5941 4916 236
7494 9146 252
2533 8207 262
3627 4098 238
6639 8894 257
3517 6217 262
5110 509 238
2218 5893 238
2262 2616 209
7982 1585 262
9002 3357 262
6641 9998 260
385 4481 238
4914 5860 236
7315 271 262
5101 1463 238
5881 6854 262
7124 8657 252
1941 7370 262
7517 3398 262
6316 6803 244
2122 3590 217
7672 5572 262
8388 3684 262
9364 9047 260
5891 1068 238
5038 3199 238
9066 8060 247
5776 5105 236
6921 6071 262
9536 4495 262
3362 7337 262
8821 4326 262
5297 6535 262
