....................
----------------------------------------------------------------------
Ran 20 tests in 0.019s

OK
Name             Stmts   Miss Branch BrPart  Cover   Missing
------------------------------------------------------------
Collatz.py          40      0     14      0   100%
TestCollatz.py      91      0      0      0   100%
------------------------------------------------------------
TOTAL              131      0     14      0   100%
