77184 77579 232
44202 44606 239
90077 90448 315
1156 1436 182
47429 47906 283
74634 75204 325
14456 14494 209
74986 75154 307
83293 83487 258
7564 8117 252
81165 81417 258
13762 14493 258
26043 26531 277
257 884 179
92528 92872 302
56191 56558 304
51691 51939 247
39131 39650 275
97071 97473 297
94739 94920 222
43042 43598 257
36283 36330 218
96976 97547 297
8791 9444 260
35628 35971 324
85305 85587 258
38427 38717 231
28498 28560 197
59731 59841 211
10284 10574 255
79483 80091 307
51142 51702 309
60648 61027 335
2469 2556 178
18112 18179 186
58778 58985 273
83687 83699 258
10830 10920 206
97394 98040 297
24387 24780 264
48893 49127 296
83100 83756 289
45228 45846 239
72893 73228 294
23981 24121 251
77031 77273 351
75901 76150 263
29542 29961 272
45663 46277 252
39361 39864 275
29187 29293 272
6958 7163 195
99141 99319 297
86761 87203 333
76946 77329 351
8039 8781 234
90786 91183 271
23928 24572 251
64565 65190 268
40749 41157 288
54190 54423 260
60097 60230 317
5762 5944 218
59492 60162 304
72704 73120 294
56321 56380 229
63476 63610 255
30740 31317 254
90664 90710 209
70110 70323 250
23068 23101 176
8830 9562 260
75447 75721 263
38526 39079 275
64014 64699 299
56081 56468 322
80514 80627 214
63423 63855 255
10352 10887 255
44765 45505 314
89387 90048 302
68388 68580 312
55561 55934 260
25358 25425 246
32180 32398 254
82777 83168 289
70838 71398 325
71513 71865 250
1328 1605 172
1874 2097 175
50985 51074 265
82485 82778 320
16017 16375 235
29473 29997 272
98244 98873 266
29042 29390 272
1626 2360 183
13718 14114 258
71504 71798 250
13600 13703 183
2253 2695 209
85171 85569 289
65347 65406 224
48683 49263 296
62000 62282 255
11743 12423 263
99577 100039 328
35951 36036 249
43031 43600 257
65626 66000 268
17878 18065 248
31543 31852 285
77934 78628 307
29085 29659 272
45550 46205 252
91700 91892 209
65421 65576 268
34899 35053 218
40631 40891 257
88440 89018 271
97249 97729 297
84709 85424 289
32181 32738 267
51163 51571 309
4316 4675 215
11147 11892 237
53261 53888 322
32399 32456 267
74824 74833 188
67254 67726 312
5741 5813 205
82093 82659 307
16071 16519 266
19536 19611 274
77547 78013 245
13079 13472 276
82933 83187 289
11558 11949 250
24136 24699 264
76569 76928 307
11486 12187 250
77912 78175 276
86413 86760 271
12099 12621 263
97300 97450 297
37404 37445 200
46583 47189 283
49395 49634 296
36848 37271 262
35069 35127 218
60067 60153 286
