...................
----------------------------------------------------------------------
Ran 19 tests in 11.147s

OK
Name             Stmts   Miss Branch BrPart  Cover   Missing
------------------------------------------------------------
Collatz.py          41      0     18      0   100%
TestCollatz.py      83      0      0      0   100%
------------------------------------------------------------
TOTAL              124      0     18      0   100%
