..................
----------------------------------------------------------------------
Ran 18 tests in 0.104s

OK
Name             Stmts   Miss Branch BrPart  Cover   Missing
------------------------------------------------------------
Collatz.py          58      2     36      2    96%   60->61, 61-62, 85->71
TestCollatz.py      75      0      0      0   100%
------------------------------------------------------------
TOTAL              133      2     36      2    98%